%YAML 1.1
%TAG !u! tag:unity3d.com,2011:
--- !u!1001 &1388107950508666787
PrefabInstance:
  m_ObjectHideFlags: 0
  serializedVersion: 2
  m_Modification:
    m_TransformParent: {fileID: 0}
    m_Modifications:
    - target: {fileID: 376181645712502602, guid: 5ee0722ef7fa7e1448402e190acfd78f,
        type: 3}
      propertyPath: m_Enabled
      value: 0
      objectReference: {fileID: 0}
    - target: {fileID: 4886112900356005086, guid: 5ee0722ef7fa7e1448402e190acfd78f,
        type: 3}
      propertyPath: m_Name
      value: BarUI_ProgressH Variant
      objectReference: {fileID: 0}
    - target: {fileID: 4886112900356005086, guid: 5ee0722ef7fa7e1448402e190acfd78f,
        type: 3}
      propertyPath: m_IsActive
      value: 1
      objectReference: {fileID: 0}
    - target: {fileID: 4886112900356005087, guid: 5ee0722ef7fa7e1448402e190acfd78f,
        type: 3}
      propertyPath: m_LocalPosition.x
      value: 0
      objectReference: {fileID: 0}
    - target: {fileID: 4886112900356005087, guid: 5ee0722ef7fa7e1448402e190acfd78f,
        type: 3}
      propertyPath: m_LocalPosition.y
      value: 0
      objectReference: {fileID: 0}
    - target: {fileID: 4886112900356005087, guid: 5ee0722ef7fa7e1448402e190acfd78f,
        type: 3}
      propertyPath: m_LocalPosition.z
      value: 0
      objectReference: {fileID: 0}
    - target: {fileID: 4886112900356005087, guid: 5ee0722ef7fa7e1448402e190acfd78f,
        type: 3}
      propertyPath: m_LocalRotation.x
      value: -0
      objectReference: {fileID: 0}
    - target: {fileID: 4886112900356005087, guid: 5ee0722ef7fa7e1448402e190acfd78f,
        type: 3}
      propertyPath: m_LocalRotation.y
      value: -0
      objectReference: {fileID: 0}
    - target: {fileID: 4886112900356005087, guid: 5ee0722ef7fa7e1448402e190acfd78f,
        type: 3}
      propertyPath: m_LocalRotation.z
      value: -0
      objectReference: {fileID: 0}
    - target: {fileID: 4886112900356005087, guid: 5ee0722ef7fa7e1448402e190acfd78f,
        type: 3}
      propertyPath: m_LocalRotation.w
      value: 1
      objectReference: {fileID: 0}
    - target: {fileID: 4886112900356005087, guid: 5ee0722ef7fa7e1448402e190acfd78f,
        type: 3}
      propertyPath: m_RootOrder
      value: 0
      objectReference: {fileID: 0}
    - target: {fileID: 4886112900356005087, guid: 5ee0722ef7fa7e1448402e190acfd78f,
        type: 3}
      propertyPath: m_LocalEulerAnglesHint.x
      value: 0
      objectReference: {fileID: 0}
    - target: {fileID: 4886112900356005087, guid: 5ee0722ef7fa7e1448402e190acfd78f,
        type: 3}
      propertyPath: m_LocalEulerAnglesHint.y
      value: 0
      objectReference: {fileID: 0}
    - target: {fileID: 4886112900356005087, guid: 5ee0722ef7fa7e1448402e190acfd78f,
        type: 3}
      propertyPath: m_LocalEulerAnglesHint.z
      value: 0
      objectReference: {fileID: 0}
    - target: {fileID: 4886112900356005087, guid: 5ee0722ef7fa7e1448402e190acfd78f,
        type: 3}
      propertyPath: m_AnchoredPosition.x
      value: 0
      objectReference: {fileID: 0}
    - target: {fileID: 4886112900356005087, guid: 5ee0722ef7fa7e1448402e190acfd78f,
        type: 3}
      propertyPath: m_AnchoredPosition.y
      value: 690
      objectReference: {fileID: 0}
    - target: {fileID: 4886112900356005087, guid: 5ee0722ef7fa7e1448402e190acfd78f,
        type: 3}
      propertyPath: m_SizeDelta.x
      value: 484.99
      objectReference: {fileID: 0}
    - target: {fileID: 4886112900356005087, guid: 5ee0722ef7fa7e1448402e190acfd78f,
        type: 3}
      propertyPath: m_SizeDelta.y
      value: 80.1
      objectReference: {fileID: 0}
    - target: {fileID: 4886112900356005087, guid: 5ee0722ef7fa7e1448402e190acfd78f,
        type: 3}
      propertyPath: m_AnchorMin.x
      value: 0.5
      objectReference: {fileID: 0}
    - target: {fileID: 4886112900356005087, guid: 5ee0722ef7fa7e1448402e190acfd78f,
        type: 3}
      propertyPath: m_AnchorMin.y
      value: 0.5
      objectReference: {fileID: 0}
    - target: {fileID: 4886112900356005087, guid: 5ee0722ef7fa7e1448402e190acfd78f,
        type: 3}
      propertyPath: m_AnchorMax.x
      value: 0.5
      objectReference: {fileID: 0}
    - target: {fileID: 4886112900356005087, guid: 5ee0722ef7fa7e1448402e190acfd78f,
        type: 3}
      propertyPath: m_AnchorMax.y
      value: 0.5
      objectReference: {fileID: 0}
    - target: {fileID: 4886112900356005087, guid: 5ee0722ef7fa7e1448402e190acfd78f,
        type: 3}
      propertyPath: m_Pivot.x
      value: 0.5
      objectReference: {fileID: 0}
    - target: {fileID: 4886112900356005087, guid: 5ee0722ef7fa7e1448402e190acfd78f,
        type: 3}
      propertyPath: m_Pivot.y
      value: 0.5
      objectReference: {fileID: 0}
    - target: {fileID: 4886112900733728279, guid: 5ee0722ef7fa7e1448402e190acfd78f,
        type: 3}
      propertyPath: m_IsActive
      value: 0
      objectReference: {fileID: 0}
    - target: {fileID: 4886112900733728280, guid: 5ee0722ef7fa7e1448402e190acfd78f,
        type: 3}
      propertyPath: m_AnchorMin.y
      value: 1
      objectReference: {fileID: 0}
    - target: {fileID: 4886112900733728280, guid: 5ee0722ef7fa7e1448402e190acfd78f,
        type: 3}
      propertyPath: m_AnchorMax.y
      value: 1
      objectReference: {fileID: 0}
    - target: {fileID: 4886112900733728280, guid: 5ee0722ef7fa7e1448402e190acfd78f,
        type: 3}
      propertyPath: m_AnchoredPosition.x
      value: 50
      objectReference: {fileID: 0}
    - target: {fileID: 4886112900733728280, guid: 5ee0722ef7fa7e1448402e190acfd78f,
        type: 3}
      propertyPath: m_AnchoredPosition.y
      value: -40.05
      objectReference: {fileID: 0}
    - target: {fileID: 4886112900967269690, guid: 5ee0722ef7fa7e1448402e190acfd78f,
        type: 3}
      propertyPath: m_AnchoredPosition.x
      value: 0
      objectReference: {fileID: 0}
    - target: {fileID: 4886112900967269690, guid: 5ee0722ef7fa7e1448402e190acfd78f,
        type: 3}
      propertyPath: m_SizeDelta.x
      value: 0.0000076293945
      objectReference: {fileID: 0}
    - target: {fileID: 4886112900967269691, guid: 5ee0722ef7fa7e1448402e190acfd78f,
        type: 3}
      propertyPath: m_Color.r
      value: 1
      objectReference: {fileID: 0}
    - target: {fileID: 4886112900967269691, guid: 5ee0722ef7fa7e1448402e190acfd78f,
        type: 3}
      propertyPath: m_Color.g
      value: 0.6557918
      objectReference: {fileID: 0}
    - target: {fileID: 4886112900967269691, guid: 5ee0722ef7fa7e1448402e190acfd78f,
        type: 3}
      propertyPath: m_Color.b
      value: 0
      objectReference: {fileID: 0}
    - target: {fileID: 4886112900967269691, guid: 5ee0722ef7fa7e1448402e190acfd78f,
        type: 3}
      propertyPath: m_Color.a
      value: 1
      objectReference: {fileID: 0}
    - target: {fileID: 4886112900967269691, guid: 5ee0722ef7fa7e1448402e190acfd78f,
        type: 3}
      propertyPath: m_Sprite
      value: 
      objectReference: {fileID: 21300000, guid: d43840d33de23d849a5329c41034616b,
        type: 3}
    - target: {fileID: 4886112901270914343, guid: 5ee0722ef7fa7e1448402e190acfd78f,
        type: 3}
      propertyPath: m_EffectColor.r
      value: 0.95294124
      objectReference: {fileID: 0}
    - target: {fileID: 4886112901270914343, guid: 5ee0722ef7fa7e1448402e190acfd78f,
        type: 3}
      propertyPath: m_EffectColor.g
      value: 0.5882353
      objectReference: {fileID: 0}
    - target: {fileID: 4886112901270914343, guid: 5ee0722ef7fa7e1448402e190acfd78f,
        type: 3}
      propertyPath: m_EffectColor.b
      value: 0.2627451
      objectReference: {fileID: 0}
    - target: {fileID: 4886112901270914343, guid: 5ee0722ef7fa7e1448402e190acfd78f,
        type: 3}
      propertyPath: m_EffectColor.a
      value: 1
      objectReference: {fileID: 0}
    - target: {fileID: 4886112901270914343, guid: 5ee0722ef7fa7e1448402e190acfd78f,
        type: 3}
      propertyPath: m_EffectDistance.x
      value: 1
      objectReference: {fileID: 0}
    - target: {fileID: 4886112901270914343, guid: 5ee0722ef7fa7e1448402e190acfd78f,
        type: 3}
      propertyPath: m_EffectDistance.y
      value: -1
      objectReference: {fileID: 0}
    - target: {fileID: 4886112901270914344, guid: 5ee0722ef7fa7e1448402e190acfd78f,
        type: 3}
      propertyPath: m_Color.r
      value: 1
      objectReference: {fileID: 0}
    - target: {fileID: 4886112901270914344, guid: 5ee0722ef7fa7e1448402e190acfd78f,
        type: 3}
      propertyPath: m_Color.g
      value: 1
      objectReference: {fileID: 0}
    - target: {fileID: 4886112901270914344, guid: 5ee0722ef7fa7e1448402e190acfd78f,
        type: 3}
      propertyPath: m_Color.b
      value: 1
      objectReference: {fileID: 0}
    - target: {fileID: 4886112901270914344, guid: 5ee0722ef7fa7e1448402e190acfd78f,
        type: 3}
      propertyPath: m_Text
      value: 5/10
      objectReference: {fileID: 0}
    - target: {fileID: 4886112901605363168, guid: 5ee0722ef7fa7e1448402e190acfd78f,
        type: 3}
      propertyPath: m_Color.a
      value: 1
      objectReference: {fileID: 0}
    - target: {fileID: 4886112901605363168, guid: 5ee0722ef7fa7e1448402e190acfd78f,
        type: 3}
      propertyPath: m_Color.r
      value: 1
      objectReference: {fileID: 0}
    - target: {fileID: 4886112901605363168, guid: 5ee0722ef7fa7e1448402e190acfd78f,
        type: 3}
      propertyPath: m_Color.g
      value: 1
      objectReference: {fileID: 0}
    - target: {fileID: 4886112901605363168, guid: 5ee0722ef7fa7e1448402e190acfd78f,
        type: 3}
      propertyPath: m_Color.b
      value: 1
      objectReference: {fileID: 0}
    - target: {fileID: 4886112901605363168, guid: 5ee0722ef7fa7e1448402e190acfd78f,
        type: 3}
      propertyPath: m_Sprite
      value: 
      objectReference: {fileID: 21300000, guid: 412e63a5f26a59845934fd3aafbf6958,
        type: 3}
    - target: {fileID: 4886112901605363199, guid: 5ee0722ef7fa7e1448402e190acfd78f,
        type: 3}
      propertyPath: m_AnchorMin.y
      value: 0.5
      objectReference: {fileID: 0}
    - target: {fileID: 4886112901605363199, guid: 5ee0722ef7fa7e1448402e190acfd78f,
        type: 3}
      propertyPath: m_AnchorMax.y
      value: 0.5
      objectReference: {fileID: 0}
    - target: {fileID: 4886112901605363199, guid: 5ee0722ef7fa7e1448402e190acfd78f,
        type: 3}
      propertyPath: m_AnchoredPosition.x
      value: 0
      objectReference: {fileID: 0}
    - target: {fileID: 4886112901605363199, guid: 5ee0722ef7fa7e1448402e190acfd78f,
        type: 3}
      propertyPath: m_AnchoredPosition.y
      value: 0
      objectReference: {fileID: 0}
    - target: {fileID: 4886112901605363199, guid: 5ee0722ef7fa7e1448402e190acfd78f,
        type: 3}
      propertyPath: m_SizeDelta.x
      value: 300
      objectReference: {fileID: 0}
    - target: {fileID: 4886112901605363199, guid: 5ee0722ef7fa7e1448402e190acfd78f,
        type: 3}
      propertyPath: m_AnchorMin.x
      value: 0.5
      objectReference: {fileID: 0}
    - target: {fileID: 4886112901605363199, guid: 5ee0722ef7fa7e1448402e190acfd78f,
        type: 3}
      propertyPath: m_AnchorMax.x
      value: 0.5
      objectReference: {fileID: 0}
    - target: {fileID: 4886112901605363199, guid: 5ee0722ef7fa7e1448402e190acfd78f,
        type: 3}
      propertyPath: m_SizeDelta.y
      value: 65
      objectReference: {fileID: 0}
    - target: {fileID: 4897474098905417131, guid: 5ee0722ef7fa7e1448402e190acfd78f,
        type: 3}
      propertyPath: textStyle
      value: 2
      objectReference: {fileID: 0}
    m_RemovedComponents: []
  m_SourcePrefab: {fileID: 100100000, guid: 5ee0722ef7fa7e1448402e190acfd78f, type: 3}
